{
  "name": "History",
  "fields": [
    {
      "fieldName": "machineId",
      "fieldType": "Integer"
    },
    {
      "fieldName": "total",
      "fieldType": "Integer"
    },
    {
      "fieldName": "drinkId",
      "fieldType": "Integer"
    },
    {
      "fieldName": "ingredientId",
      "fieldType": "Integer"
    },
    {
      "fieldName": "description",
      "fieldType": "String"
    },
    {
      "fieldName": "action",
      "fieldType": "Actions",
      "fieldValues": "BUY,RESTOCK,OTHER"
    }
  ],
  "relationships": [
    {
      "relationshipType": "one-to-one",
      "otherEntityName": "infrastructure",
      "otherEntityRelationshipName": "history",
      "relationshipName": "infrastructureId",
      "ownerSide": true
    }
  ],
  "entityTableName": "history",
  "dto": "no",
  "pagination": "no",
  "service": "no",
  "jpaMetamodelFiltering": false,
  "fluentMethods": true,
  "readOnly": false,
  "embedded": false,
  "applications": ["beverageDispenser"],
  "changelogDate": "20220105144125"
}
